%YAML 1.1
%TAG !u! tag:unity3d.com,2011:
--- !u!114 &11400000
MonoBehaviour:
  m_ObjectHideFlags: 0
  m_CorrespondingSourceObject: {fileID: 0}
  m_PrefabInstance: {fileID: 0}
  m_PrefabAsset: {fileID: 0}
  m_GameObject: {fileID: 0}
  m_Enabled: 1
  m_EditorHideFlags: 0
  m_Script: {fileID: 11500000, guid: 6cd867f7b96ef0f4498b45ea81c88fd3, type: 3}
  m_Name: Settings
  m_EditorClassIdentifier: 
  cellSize: 3
  gridScale: 10
  gridOrigin: {x: 0, y: 10, z: 0}
  tilePaths:
  - RoadTile13
  - RoadTile13
  - RoadTile13
  - RoadTile13
  - RoadTile13
  - RoadTile13
  - RoadTile13
  - RoadTile13
  - RoadTile13
  - RoadTile13
  - RoadTile13
  - RoadTile13
  - RoadTile13
  - RoadTile13
  - RoadTile13
  - RoadTile13
  - RoadTile13
  - RoadTile13
  - RoadTile13
  - RoadTile13
  - RoadTile13
  - RoadTile13
  - RoadTile13
  - RoadTile13
  - RoadTile13
  - RoadTile13
  - RoadTile13
  - RoadTile13
  - RoadTile13
  - RoadTile13
  - RoadTile13
  - RoadTile13
  - RoadTile13
  - RoadTile13
  - RoadTile13
  - RoadTile13
  - RoadTile13
  - RoadTile13
  - RoadTile13
  - RoadTile13
  - RoadTile13
  - RoadTile13
  - RoadTile13
  - RoadTile13
  - RoadTile13
  - RoadTile13
  - RoadTile13
  - RoadTile13
  - RoadTile13
  - RoadTile13
  - RoadTile13
  - RoadTile13
  - RoadTile25
  - RoadTile31
  - RoadTile59
  - RoadTile58
  - RoadTile57
  - RoadTile56
  - RoadTile55
  - RoadTile54
  - RoadTile53
  - RoadTile52
  - RoadTile49
  - RoadTile48
  - RoadTile43
  - RoadTile39
  - RoadTile38
  - RoadTile35
  - RoadTile32
  - RoadTile27
  - RoadTile42
  - RoadTile41
  - RoadTile33
  - RoadTile26
  - RoadTile40
  - RoadTile34
  - RoadTile30
